IPT Rmarkdown
…
AHP1 <- AHP  %>% 
  mutate(RiskNum = Inclinacao + Total_Moradia + Densidade + GeolDesf + Solo + CoberturaNatural + AterroLixoEntulho +  InstabSum +  AguaTotal + VegTotal) %>% 
select(setor, Risco, RiskNum)

AHP1 <- AHP1 %>%
  mutate(LogRisk = log10(RiskNum))

colnames(AHP1) <- c("Sector", "Risk", "RiskNum", "LogRisk")

AHP1

## # A tibble: 250 x 4
##    Sector   Risk  RiskNum LogRisk
##    <chr>    <chr>   <dbl>   <dbl>
##  1 JT-13-01 R2       58.7    1.77
##  2 JT-14-01 R2       35.0    1.54
##  3 FO-22-05 R2       47.5    1.68
##  4 CS-14-04 R3       64.0    1.81
##  5 FO-23-01 R3       45.8    1.66
##  6 G-05-02  R3       70.6    1.85
##  7 JT-10-02 R3       70.5    1.85
##  8 JT-12-07 R3       68.8    1.84
##  9 BT-06-02 R4       69.0    1.84
## 10 CL-24-06 R4       66.0    1.82
## # ... with 240 more rows
…
